…
``` r
HHGTTG_trigrams <- HHGTTG %>%
  unnest_tokens(trigram, content, token = "ngrams", n = 3) %>%
  separate(trigram, c("word1", "word2", "word3"), sep = " ") %>%
  filter(!word1 %in% stop_words$word,
         !word2 %in% stop_words$word,
         !word3 %in% stop_words$word) %>%
  count(word1, word2, word3, sort = TRUE)
HHGTTG_trigrams
```

    ## # A tibble: 6,990 x 4
    ##    word1      word2       word3           n
    ##    <chr>      <chr>       <chr>       <int>
    ##  1 hitch      hiker's     guide          32
    ##  2 sirius     cybernetics corporation    17
    ##  3 hitch      hiker’s     guide          15
    ##  4 total      perspective vortex         13
    ##  5 pan        galactic    gargle         12
    ##  6 ursa       minor       beta            9
    ##  7 galactic   gargle      blaster         8
    ##  8 prostetnic vogon       jeltz           8
    ##  9 beep       beep        beep            7
    ## 10 quentulus  quazgar     mountains       7
    ## # ... with 6,980 more rows
…
